<?xml version='1.0' encoding ='UTF-8' standalone='yes'?>
<svg width='16.7' height='15.12' xmlns='http://www.w3.org/2000/svg' xmlns:xlink='http://www.w3.org/1999/xlink' xmlns:inkscape='http://www.inkscape.org/namespaces/inkscape'>
<path style='fill:#800000; stroke:none' d=' M 1.44 6.41  L 0.03 6.41  L 0.03 5.48  L 1.42 5.48  Q 1.81 5.31 2.76 4.16  Q 3.7 3.01 5.87 3.01  Q 8.36 3.01 12.23 5.46  L 16.7 5.44  L 16.7 6.51  L 12.23 6.26  Q 8.15 7.72 5.91 7.72  Q 11.9 14.36 15.28 14.36  Q 16.02 14.36 16.02 13.55  Q 16.02 13.16 15.67 13.16  Q 15.26 13.16 15.26 13.55  Q 15.59 13.55 15.58 13.89  Q 15.57 14.23 15.26 14.23  Q 14.62 14.23 14.62 13.55  Q 14.62 12.48 15.69 12.48  Q 16.7 12.55 16.7 13.55  Q 16.7 15 15.26 15.12  Q 11.32 15.12 4.63 7.81  L 4.63 13.68  L 3.5 13.68  L 3.5 10.26  Q 3.5 9.31 3 8.98  L 3 8.05  L 3.58 8.07  Q 3.58 7.23 2.88 6.98  Q 2.18 6.72 1.44 6.41  Z  M 16.7 2.92  L 16.7 4.02  Q 14.29 4.02 11.04 2.62  Q 7.8 1.22 5.69 1.22  Q 3.58 1.22 0.51 2.08  Q 0.1 2.08 0.01 1.47  Q -0.09 0.86 1 0.58  Q 3.6 0 5.7 0  Q 7.8 0 11.04 1.46  Q 14.29 2.92 16.7 2.92  Z  M 4.57 5.36  Q 4.57 5.67 4.7 5.95  Q 4.83 6.22 5.04 6.42  Q 5.25 6.63 5.54 6.74  Q 5.7 6.8 5.89 6.84  Q 6.11 6.84 6.34 6.82  Q 6.54 6.8 6.73 6.7  Q 7 6.59 7.21 6.37  Q 7.41 6.16 7.53 5.88  Q 7.64 5.6 7.63 5.28  Q 7.62 4.96 7.49 4.68  Q 7.35 4.41 7.14 4.22  Q 7.06 4.14 6.98 4.06  Q 6.36 3.93 5.86 3.91  Q 5.64 3.91 5.45 3.95  Q 5.18 4.06 4.98 4.26  Q 4.79 4.47 4.67 4.75  Q 4.55 5.03 4.57 5.36  Z  M 11.2 5.87  Q 9.43 4.88 8.03 4.39  Q 8.05 4.43 8.07 4.47  Q 8.25 4.86 8.25 5.31  Q 8.25 5.75 8.07 6.14  Q 7.95 6.45 7.74 6.69  Q 9.31 6.45 11.2 5.87  Z  M 3.93 5.31  Q 3.93 4.86 4.11 4.47  Q 4.16 4.35 4.22 4.22  Q 3.64 4.49 3.29 4.92  Q 2.53 5.87 2.18 5.87  Q 3.52 6.49 4.36 6.67  Q 4.4 6.67 4.44 6.69  Q 4.24 6.45 4.11 6.14  Q 3.93 5.75 3.93 5.31  Z '/></svg>
